{
  "typePropertyClassReference": {
    "Article": "Customer\\EwcArticle",
    "RelatedArticle": "Customer\\EwcArticle",
    "Author": "Everyware\\Concepts\\Author",
    "Category": "Everyware\\Concepts\\Category",
    "Concept": "Customer\\EwcConcept",
    "Place": "Everyware\\Concepts\\Place",
    "Story": "Everyware\\Concepts\\Story",
    "Tag": "Everyware\\Concepts\\Tag"
  },
  "typePropertyMap": {
    "Article": {
      "articles": {
        "name": "Articles",
        "propertyMapReference": "RelatedArticle"
      },
      "authors": {
        "name": "Authors",
        "propertyMapReference": "Author"
      },
      "body_raw": {
        "name": "BodyRaw"
      },
      "categories": {
        "name": "Categories",
        "propertyMapReference": "Category"
      },
      "contenttype": {
        "name": "contenttype"
      },
      "channels": {
        "name": "Channels",
        "transforms": [
          "toMultiValue"
        ]
      },
      "dateline": {
        "name": "Dateline"
      },
      "headline": {
        "name": "Headline"
      },
      "hide_ads": {
        "name": "HideAds",
        "transforms": [
          "toBoolValue"
        ]
      },
      "hide_comments": {
        "name": "HideComments",
        "transforms": [
          "toBoolValue"
        ]
      },
      "image_uuids": {
        "name": "ImageUuids",
        "transforms": [
          "toMultiValue"
        ]
      },
      "is_plus": {
        "name": "IsPlus",
        "transforms": [
          "toBoolValue"
        ]
      },
      "leadin": {
        "name": "Leadin"
      },
      "places": {
        "name": "Places",
        "propertyMapReference": "Place"
      },
      "pubdate": {
        "name": "Pubdate",
        "transforms": [
          "toDateValue"
        ]
      },
      "section": {
        "name": "Section"
      },
      "stories": {
        "name": "Stories",
        "propertyMapReference": "Story"
      },
      "tags": {
        "name": "Tags",
        "propertyMapReference": "Tag"
      },
      "teaser_headline": {
        "name": "TeaserHeadline"
      },
      "teaser_image_uuids": {
        "name": "TeaserImageUuids",
        "transforms": [
          "toMultiValue"
        ]
      },
      "teaser_raw": {
        "name": "TeaserRaw"
      },
      "text": {
        "name": "Text"
      },
      "updated": {
        "name": "updated",
        "transforms": [
          "toDateValue"
        ]
      },
      "uuid": {
        "name": "uuid"
      },
      "type": {
        "name": "Type"
      }
    },
    "Author": {
      "avatar_uuid": {
        "name": "ImageUuids"
      },
      "meta_data": {
        "name": "ConceptMetaData"
      },
      "contenttype": {
        "name": "contenttype"
      },
      "description": {
        "name": "Description"
      },
      "description_short": {
        "name": "DescriptionShort"
      },
      "name": {
        "name": "Name"
      },
      "related_links": {
        "name": "RelatedLinks",
        "transforms": [
          "toMultiValue"
        ]
      },
      "type": {
        "name": "Type"
      },
      "uuid": {
        "name": "uuid"
      }
    },
    "Category": {
      "meta_data": {
        "name": "ConceptMetaData"
      },
      "contenttype": {
        "name": "contenttype"
      },
      "description": {
        "name": "Description"
      },
      "description_short": {
        "name": "DescriptionShort"
      },
      "name": {
        "name": "Name"
      },
      "related_links": {
        "name": "RelatedLinks",
        "transforms": [
          "toMultiValue"
        ]
      },
      "type": {
        "name": "Type"
      },
      "uuid": {
        "name": "uuid"
      }
    },
    "Concept": {
      "meta_data": {
        "name": "ConceptMetaData"
      },
      "contenttype": {
        "name": "contenttype"
      },
      "description": {
        "name": "Description"
      },
      "description_short": {
        "name": "DescriptionShort"
      },
      "name": {
        "name": "Name"
      },
      "related_links": {
        "name": "RelatedLinks",
        "transforms": [
          "toMultiValue"
        ]
      },
      "type": {
        "name": "Type"
      },
      "uuid": {
        "name": "uuid"
      }
    },
    "RelatedArticle": {
      "authors": {
        "name": "Authors",
        "propertyMapReference": "Author"
      },
      "body_raw": {
        "name": "BodyRaw"
      },
      "categories": {
        "name": "Categories",
        "propertyMapReference": "Category"
      },
      "contenttype": {
        "name": "contenttype"
      },
      "channels": {
        "name": "Channels",
        "transforms": [
          "toMultiValue"
        ]
      },
      "dateline": {
        "name": "Dateline"
      },
      "headline": {
        "name": "Headline"
      },
      "hide_ads": {
        "name": "HideAds",
        "transforms": [
          "toBoolValue"
        ]
      },
      "hide_comments": {
        "name": "HideComments",
        "transforms": [
          "toBoolValue"
        ]
      },
      "image_uuids": {
        "name": "ImageUuids",
        "transforms": [
          "toMultiValue"
        ]
      },
      "is_plus": {
        "name": "IsPlus",
        "transforms": [
          "toBoolValue"
        ]
      },
      "leadin": {
        "name": "Leadin"
      },
      "places": {
        "name": "Places",
        "propertyMapReference": "Place"
      },
      "pubdate": {
        "name": "Pubdate",
        "transforms": [
          "toDateValue"
        ]
      },
      "section": {
        "name": "Section"
      },
      "status": {
        "name": "Status"
      },
      "stories": {
        "name": "Stories",
        "propertyMapReference": "Story"
      },
      "tags": {
        "name": "Tags",
        "propertyMapReference": "Tag"
      },
      "teaser_headline": {
        "name": "TeaserHeadline"
      },
      "teaser_image_uuids": {
        "name": "TeaserImageUuids",
        "transforms": [
          "toMultiValue"
        ]
      },
      "teaser_raw": {
        "name": "TeaserRaw"
      },
      "text": {
        "name": "Text"
      },
      "updated": {
        "name": "updated",
        "transforms": [
          "toDateValue"
        ]
      },
      "uuid": {
        "name": "uuid"
      }
    },
    "Place": {
      "meta_data": {
        "name": "ConceptMetaData"
      },
      "contenttype": {
        "name": "contenttype"
      },
      "description": {
        "name": "Description"
      },
      "description_short": {
        "name": "DescriptionShort"
      },
      "name": {
        "name": "Name"
      },
      "related_links": {
        "name": "RelatedLinks",
        "transforms": [
          "toMultiValue"
        ]
      },
      "type": {
        "name": "Type"
      },
      "uuid": {
        "name": "uuid"
      }
    },
    "Story": {
      "meta_data": {
        "name": "ConceptMetaData"
      },
      "contenttype": {
        "name": "contenttype"
      },
      "description": {
        "name": "Description"
      },
      "description_short": {
        "name": "DescriptionShort"
      },
      "name": {
        "name": "Name"
      },
      "related_links": {
        "name": "RelatedLinks",
        "transforms": [
          "toMultiValue"
        ]
      },
      "type": {
        "name": "Type"
      },
      "uuid": {
        "name": "uuid"
      }
    },
    "Tag": {
      "meta_data": {
        "name": "ConceptMetaData"
      },
      "contenttype": {
        "name": "contenttype"
      },
      "description": {
        "name": "Description"
      },
      "description_short": {
        "name": "DescriptionShort"
      },
      "name": {
        "name": "Name"
      },
      "related_links": {
        "name": "RelatedLinks",
        "transforms": [
          "toMultiValue"
        ]
      },
      "type": {
        "name": "Type"
      },
      "uuid": {
        "name": "uuid"
      }
    }
  }
}